module twofactor

go 1.20

require (
	github.com/go-chi/chi v4.0.2+incompatible
	github.com/go-pg/pg/v10 v10.11.0
	github.com/google/uuid v1.3.0
	gopkg.in/yaml.v3 v3.0.0-20200313102051-9f266ea9e77c
)

require (
	github.com/go-pg/zerochecker v0.2.0 // indirect
	github.com/jinzhu/inflection v1.0.0 // indirect
	github.com/tmthrgd/go-hex v0.0.0-20190904060850-447a3041c3bc // indirect
	github.com/vmihailenco/bufpool v0.1.11 // indirect
	github.com/vmihailenco/msgpack/v5 v5.3.4 // indirect
	github.com/vmihailenco/tagparser v0.1.2 // indirect
	github.com/vmihailenco/tagparser/v2 v2.0.0 // indirect
	golang.org/x/crypto v0.0.0-20210921155107-089bfa567519 // indirect
	golang.org/x/sys v0.0.0-20210923061019-b8560ed6a9b7 // indirect
	mellium.im/sasl v0.3.1 // indirect
)
